abandoned-j
abhorrent-j
abnormal-j
abominable-j
abstract-j
accustomed-j
acrobatic-j
administrative-j
adoptive-j
aerobic-j
affluent-j
ailing-j
airmail-j
alcoholic-j
alien-j
allergic-j
alluvial-j
alone-j
alveolar-j
amniotic-j
amphibious-j
amygdaloidal-j
amygdaloid-j
anaerobic-j
anal-j
androgenic-j
angular-j
anterior-j
applied-j
aquatic-j
archaeological-j
archeological-j
armed-j
arterial-j
assorted-j
assumed-j
athletic-j
atmospherical-j
atmospheric-j
atomic-j
attractive-j
auditory-j
aureate-j
automatic-j
axial-j
bacillary-j
backstage-j
bad-j
ballistic-j
barbed-j
basic-j
behavioristic-j
beneficent-j
bibulous-j
big-j
biological-j
biologic-j
bionic-j
biting-j
black-j
blue-j
bluish-j
botanical-j
bridal-j
briny-j
bristly-j
bronchial-j
brown-j
busy-j
capillary-j
capitalist-j
cardiac-j
cardiopulmonary-j
cardiorespiratory-j
carnal-j
causal-j
celebrated-j
celestial-j
cellular-j
central-j
centripetal-j
cherished-j
chewing-j
childish-j
ciliated-j
circular-j
civil-j
clandestine-j
clinical-j
closed-j
coaxial-j
cogent-j
coincident-j
cold-j
colloidal-j
colorimetric-j
comic-j
commanding-j
commercial-j
common-j
complex-j
composite-j
concave-j
concurrent-j
confidential-j
coniferous-j
conservative-j
contagious-j
continuous-j
contraceptive-j
cordial-j
corneal-j
cosmetic-j
creative-j
criminal-j
critical-j
crossed-j
crowned-j
crushed-j
cubic-j
culinary-j
cupric-j
cuprous-j
curved-j
dangerous-j
dateless-j
dead-j
deep-j
defensive-j
degenerative-j
dense-j
dental-j
derelict-j
derived-j
detestable-j
diabetic-j
diachronic-j
diacritical-j
difficult-j
dirty-j
diseased-j
distinctive-j
dominating-j
double-j
dramatic-j
drunken-j
dry-j
dual-j
dumb-j
eager-j
early-j
east-j
eclectic-j
economical-j
economic-j
educational-j
electrical-j
electric-j
electromotive-j
electronic-j
empty-j
endocrine-j
enlarged-j
enteral-j
enteric-j
environmental-j
epiphytic-j
epithelial-j
equine-j
exclusive-j
existential-j
existent-j
exotic-j
experiential-j
explorative-j
exploratory-j
fair-j
false-j
familial-j
famous-j
fancy-j
fast-j
fat-j
fellow-j
female-j
feudalistic-j
feudal-j
fibrous-j
figured-j
final-j
financial-j
finishing-j
first-j
fiscal-j
flat-j
flexible-j
flightless-j
flowering-j
fluorescent-j
foolish-j
forced-j
fourth-j
free-j
fresh-j
friendly-j
full-j
fundamental-j
fungal-j
gainful-j
gaseous-j
gastric-j
gay-j
genetic-j
genital-j
gentle-j
geographical-j
geographic-j
geophysical-j
germinal-j
given-j
glandular-j
gluteal-j
golden-j
good-j
gouty-j
graphic-j
graven-j
gravitational-j
grayish-j
greasy-j
great-j
greenish-j
green-j
greyish-j
grey-j
guiding-j
gymnastic-j
habitual-j
haemorrhagic-j
hallucinogenic-j
hard-j
hazardous-j
heavenly-j
heavy-j
hemorrhagic-j
hempen-j
herbaceous-j
herbal-j
heroic-j
heterodyne-j
hierarchal-j
hierarchical-j
high-j
historical-j
holistic-j
holy-j
homosexual-j
hoofed-j
hooved-j
horizontal-j
horned-j
horny-j
hot-j
human-j
hybrid-j
idle-j
ill-j
incandescent-j
indoor-j
inductive-j
industrial-j
inexperienced-j
infantile-j
inflectional-j
inhuman-j
inner-j
innocent-j
integrated-j
interactive-j
internal-j
intestinal-j
intimate-j
inverse-j
inverted-j
irresistible-j
irruptive-j
joint-j
judicial-j
landed-j
large-j
last-j
leading-j
legal-j
legislative-j
leguminous-j
lexical-j
linear-j
lingual-j
linguistic-j
little-j
logical-j
lone-j
long-j
loose-j
low-j
lumbar-j
lunar-j
magnetic-j
main-j
major-j
malicious-j
mandibular-j
marine-j
married-j
mechanical-j
medical-j
medicinal-j
melodic-j
melodious-j
mental-j
mercantile-j
metallic-j
metallurgical-j
metallurgic-j
methodological-j
military-j
minimal-j
minimum-j
minor-j
mixed-j
mobile-j
mock-j
monetary-j
monosyllabic-j
moral-j
morbid-j
mucous-j
muscular-j
mutual-j
narrow-j
national-j
native-j
natural-j
nephritic-j
nominal-j
nonfictional-j
nonnatural-j
nonviolent-j
nuclear-j
ocular-j
odd-j
offensive-j
old-j
olfactory-j
opposite-j
optical-j
oral-j
ordered-j
organic-j
organized-j
originative-j
outdoor-j
outer-j
outside-j
paediatric-j
papillary-j
papillose-j
parallel-j
parasitical-j
parasitic-j
parathyroid-j
particulate-j
passive-j
past-j
paying-j
peaked-j
pecuniary-j
pediatric-j
pelvic-j
perceptual-j
periodontal-j
peritoneal-j
personal-j
petite-j
pharmaceutical-j
philanthropic-j
philosophical-j
philosophic-j
phobic-j
photoelectric-j
physical-j
physiological-j
pinkish-j
pink-j
plain-j
plutonic-j
pneumatic-j
pneumonic-j
poisonous-j
political-j
polygonal-j
polyphonic-j
poor-j
postal-j
posterior-j
practical-j
precious-j
pregnant-j
prehistorical-j
prehistoric-j
premature-j
presidential-j
preventive-j
prickly-j
private-j
promotional-j
prosthetic-j
proteolytic-j
psychedelic-j
psychic-j
psychological-j
psychotic-j
pubic-j
public-j
pulmonary-j
pyrogallic-j
quick-j
racial-j
radical-j
radioactive-j
random-j
rapid-j
raw-j
real-j
rear-j
red-j
reflective-j
reinforced-j
religious-j
renal-j
repulsive-j
residual-j
resistless-j
retail-j
retired-j
rich-j
risky-j
rotary-j
rough-j
runic-j
sad-j
sales-j
scalene-j
scaphoid-j
schizophrenic-j
scientific-j
sebaceous-j
second-j
secret-j
seeable-j
semiconducting-j
semiconductive-j
seminal-j
senior-j
sensory-j
serial-j
serious-j
serous-j
seventh-j
sexual-j
short-j
sick-j
silent-j
simple-j
single-j
sixteenth-j
small-j
smoked-j
smoky-j
sociable-j
social-j
soft-j
soiled-j
solitary-j
sore-j
soundless-j
spectrographic-j
spectroscopic-j
spinal-j
spiritual-j
splanchnic-j
spoken-j
spontaneous-j
spousal-j
stable-j
stereoscopic-j
stochastic-j
stomachic-j
strange-j
strengthened-j
strong-j
structural-j
suburban-j
sulfuric-j
sulphuric-j
superstitious-j
supreme-j
sweet-j
syllabic-j
symphonic-j
synergistic-j
synovial-j
synthetic-j
tannic-j
taxonomical-j
taxonomic-j
technical-j
telling-j
temporal-j
terrorist-j
testicular-j
textual-j
theatrical-j
theoretical-j
theoretic-j
thermonuclear-j
thin-j
thorough-j
tidy-j
timeless-j
top-j
touching-j
toxic-j
trackless-j
traditional-j
tragical-j
tragic-j
transcendental-j
true-j
twin-j
tympanic-j
typical-j
typographical-j
typographic-j
umbelliferous-j
umbilical-j
undercover-j
undergraduate-j
underground-j
uneducated-j
uneven-j
unfavorable-j
unfavourable-j
uninterrupted-j
unleavened-j
unmarried-j
unnatural-j
unsafe-j
unsecured-j
unusual-j
unvoiced-j
unwelcome-j
upper-j
urban-j
urinary-j
vaginal-j
venereal-j
vertebral-j
vertical-j
violent-j
virgin-j
visceral-j
visible-j
visual-j
vital-j
vitreous-j
voiceless-j
wealthy-j
wet-j
whipping-j
white-j
whole-j
wholesale-j
wild-j
wilful-j
willful-j
wise-j
wooden-j
written-j
wry-j
yellow-j
young-j
zoological-j
zoonotic-j
zygomatic-j
